<?xml version="1.0" encoding="UTF-8" standalone="no"?>
<!-- Created with Inkscape (http://www.inkscape.org/) -->

<svg
   xmlns:dc="http://purl.org/dc/elements/1.1/"
   xmlns:cc="http://creativecommons.org/ns#"
   xmlns:rdf="http://www.w3.org/1999/02/22-rdf-syntax-ns#"
   xmlns:svg="http://www.w3.org/2000/svg"
   xmlns="http://www.w3.org/2000/svg"
   version="1.1"
   width="146"
   height="146"
   viewBox="0 0 146 146"
   id="svg2">
  <defs
     id="defs4" />
  <metadata
     id="metadata7">
    <rdf:RDF>
      <cc:Work
         rdf:about="">
        <dc:format>image/svg+xml</dc:format>
        <dc:type
           rdf:resource="http://purl.org/dc/dcmitype/StillImage" />
        <dc:title></dc:title>
      </cc:Work>
    </rdf:RDF>
  </metadata>
  <g
     transform="translate(0,-906.36218)"
     id="layer1">
    <path
       d="m 72.989395,918.92532 -64.1212498,68.04 -2.73625,-2.90375 66.8649998,-70.95 2.73625,2.9025 -0.0087,0.009 64.142445,68.06125 -2.73624,2.9025 -64.141255,-68.06125 z m -26.81,87.76628 c 0,2.1775 -1.7725,3.95 -3.95,3.95 -2.17875,0 -3.95125,-1.7725 -3.95125,-3.95 0,-2.1775 1.7725,-3.95 3.95125,-3.95 2.1775,0 3.95,1.7725 3.95,3.95 m 8.17125,-27.39628 c 0,2.1775 -1.7725,3.95 -3.95,3.95 -2.17875,0 -3.95,-1.7725 -3.95,-3.95 0,-2.1775 1.77125,-3.95 3.95,-3.95 2.1775,0 3.95,1.7725 3.95,3.95 m 18.64875,-7.8075 c -2.17875,0 -3.95,-1.7725 -3.95,-3.95 0,-2.17875 1.77125,-3.95125 3.95,-3.95125 2.1775,0 3.95,1.7725 3.95,3.95125 0,2.1775 -1.7725,3.95 -3.95,3.95 m 17.8125,12.4175 c 0,-2.1775 1.77125,-3.95 3.95,-3.95 2.17875,0 3.95,1.7725 3.95,3.95 0,2.17875 -1.77125,3.95127 -3.95,3.95127 -2.17875,0 -3.95,-1.77252 -3.95,-3.95127 m 7.96125,16.34748 c 0,-2.17871 1.772495,-3.95121 3.951245,-3.95121 2.1775,0 3.95001,1.7725 3.95001,3.95121 0,2.1775 -1.77251,3.95 -3.95001,3.95 -2.17875,0 -3.951245,-1.7725 -3.951245,-3.95 m 26.004995,-22.20748 0,67.56748 -39.144995,0 0,-32.0512 13.25125,-9.8325 c 0.9525,1.0512 2.313745,1.7237 3.839995,1.7237 2.8675,0 5.20001,-2.3337 5.20001,-5.2 0,-2.86751 -2.33251,-5.20121 -5.20001,-5.20121 -2.867495,0 -5.201245,2.3337 -5.201245,5.20121 0,0.89 0.2475,1.7188 0.645,2.4525 l -13.5325,10.04 c -0.15875,0.1163 -0.2525,0.3038 -0.2525,0.5013 l 0,32.3662 -5,0 0,-47.89871 11.7825,-9.8125 c 0.0525,-0.044 0.08875,-0.099 0.1225,-0.1538 0.92375,0.835 2.13375,1.3588 3.47375,1.3588 2.8675,0 5.2,-2.33377 5.2,-5.20127 0,-2.8675 -2.3325,-5.2 -5.2,-5.2 -2.8675,0 -5.2,2.3325 -5.2,5.2 0,1.1025 0.35,2.1225 0.9375,2.96375 -0.045,0.0225 -0.0925,0.0387 -0.13375,0.0725 l -12.0075,10.00002 c -0.1425,0.1187 -0.225,0.2937 -0.225,0.48 l 0,48.19121 -4.565,0 0,-72.93248 c 2.5975,-0.28875 4.63125,-2.47125 4.63125,-5.1425 0,-2.8675 -2.3325,-5.20125 -5.2,-5.20125 -2.8675,0 -5.2,2.33375 -5.2,5.20125 0,2.63375 1.975,4.79375 4.51875,5.13 l 0,72.94498 -4.71125,0 0,-58.19123 c 0,-0.23375 -0.12875,-0.4475 -0.33625,-0.55375 l -11.88125,-6.18625 c 0.12375,-0.44375 0.21125,-0.9025 0.21125,-1.38625 0,-2.8675 -2.3325,-5.2 -5.2,-5.2 -2.8675,0 -5.2,2.3325 -5.2,5.2 0,2.8675 2.3325,5.2 5.2,5.2 1.9375,0 3.6125,-1.07875 4.50625,-2.655 l 11.45,5.96127 0,57.81121 -5,0 0,-31.1162 c 0,-0.2463 -0.145,-0.4713 -0.37125,-0.5713 l -13.69125,-6.095 c 0.0825,-0.3675 0.135,-0.7475 0.135,-1.1387 0,-2.8675 -2.3325,-5.2 -5.2,-5.2 -2.8675,0 -5.20125,2.3325 -5.20125,5.2 0,2.8675 2.33375,5.2 5.20125,5.2 2.03125,0 3.77625,-1.1825 4.63125,-2.8863 l 13.24625,5.8975 0,30.71 -38.99875,0 0,-67.56748 c 0,-0.125 -0.03625,-0.2375 -0.07,-0.34875 l 51.95125,-55.12625 51.875005,55.045 c -0.05,0.13625 -0.0863,0.2775 -0.0863,0.43 m 16.90875,7.75375 c 0.9075,-0.9625 0.9075,-2.4675 0,-3.42875 l -63.976205,-67.885 c -0.04875,-0.065 -0.1025,-0.12625 -0.15875,-0.18625 l -2.735,-2.9025 c -0.4725,-0.50125 -1.13,-0.785 -1.82,-0.785 -0.6875,0 -1.34625,0.28375 -1.81875,0.785 L 4.3131452,982.34782 c -0.9075,0.96375 -0.9075,2.46625 0,3.42875 l 2.735,2.90372 c 0.4725,0.5 1.13,0.785 1.82,0.785 0.6875,0 1.3462498,-0.285 1.8187498,-0.785 l 7.92125,-8.40622 0,66.58873 c 0,0.69 0.56,1.25 1.25,1.25 l 106.170005,0 c 0.69,0 1.25,-0.56 1.25,-1.25 l 0,-66.68623 8.03375,8.52502 c 0.4725,0.5012 1.13125,0.785 1.81875,0.785 0.69,0 1.34749,-0.2838 1.81999,-0.785 l 2.73626,-2.90252 z"
       id="path534"
       style="fill:#8fc73a;fill-opacity:1;fill-rule:nonzero;stroke:none" />
  </g>
</svg>
