<?xml version="1.0" encoding="utf-8"?>
<!-- Generator: Adobe Illustrator 21.0.2, SVG Export Plug-In . SVG Version: 6.00 Build 0)  -->
<svg version="1.1" id="Vrstva_1" xmlns="http://www.w3.org/2000/svg" xmlns:xlink="http://www.w3.org/1999/xlink" x="0px" y="0px"
	 viewBox="0 0 313.1 100" style="enable-background:new 0 0 313.1 100;" xml:space="preserve">
<style type="text/css">
	.st0{fill:#8FC73A;}
</style>
<g>
	<path class="st0" d="M129,5.4v91.9h-21.1V5.4H129z"/>
	<path class="st0" d="M64.3,56.8L95.6,88L85.1,98.6L53.8,67.3L64.3,56.8z"/>
	<path class="st0" d="M140.2,12.9c0-6.9,5.4-11.9,12.3-11.9c6.7,0,12.3,5,12.3,11.9c0,6.7-5.6,11.8-12.3,11.8
		C145.6,24.7,140.2,19.6,140.2,12.9z M163.1,34.5v62.8h-21V34.5H163.1z"/>
	<path class="st0" d="M246.3,34.5l-27.2,62.8h-19.9L172,34.5h22.1l15,36.2l15-36.2H246.3z"/>
	<path class="st0" d="M311.8,70.9h-45.4c1.4,6.5,5.7,11.5,14.2,11.5c4.7,0,7.4-1,9.3-3.4h21.2C307.4,91.4,295.7,99,281,99
		c-20.6,0-34.3-14-34.3-33.1c0-19,13.3-33,32.7-33c18.8,0,32.7,11.9,32.7,30.9C312.2,66.2,312.2,68.4,311.8,70.9z M266.6,58.9h26
		c-1-7.4-5.6-10.5-12.7-10.5C272.6,48.4,268.3,52.5,266.6,58.9z"/>
	<g>
		<path class="st0" d="M47.5,79.3c-14.9,0-27-12.1-27-27c0-14.9,12.1-27,27-27c14.9,0,27,12.1,27,27c0,2.5-0.4,4.9-1,7.2l15,15
			c3.6-6.6,5.6-14.2,5.6-22.2c0-25.7-20.9-46.6-46.6-46.6C21.8,5.7,0.9,26.6,0.9,52.3c0,25.7,20.9,46.6,46.6,46.6
			c8.7,0,16.9-2.4,23.9-6.6L56.7,77.6C53.9,78.7,50.8,79.3,47.5,79.3z"/>
	</g>
</g>
</svg>
